module gitlab.com/yakshaving.art/alertsnitch

go 1.14

require (
	github.com/go-sql-driver/mysql v1.5.0
	github.com/gorilla/context v1.1.1 // indirect
	github.com/gorilla/mux v1.6.2
	github.com/lib/pq v1.9.0
	github.com/prometheus/client_golang v0.9.2
	github.com/prometheus/common v0.0.0-20190104105734-b1c43a6df3ae // indirect
	github.com/prometheus/procfs v0.0.0-20190104112138-b1a0a9a36d74 // indirect
	github.com/sirupsen/logrus v1.2.0
	github.com/stretchr/testify v1.3.0
	golang.org/x/sys v0.2.1-0.20221110211117-d684c6f88669 // indirect
)
